{
    "PrayerDirectory":"/opt/chrisfair/latin-catholic-prayers/Prayers",
    "DefaultGroup":"Basic",
    "NumberOfOptions":"5",
    "SoundDirectory":"/opt/chrisfair/latin-catholic-prayers/Sounds",
    "UsersDirectory":"~/.config/latin-catholic-prayers/UserResults",
    "HelpFiles":"/opt/chrisfair/latin-catholic-prayers/HelpFiles"
}
