{
    "Latin":"Deus in adiutórium meum inténde. Dómine, ad adiuvándum me festína.",
    "English":"O God, come to my assistance; O Lord, make haste to help me.",
    "AudioFile":"DeusInAdiutorium.ogg",
    "EnglishName":"O God Come to my Assistance",
    "LatinName":"Deus in adiutórium",
    "Groups":[ "Breviary", "Matins", "Lauds", "Prime", "Terce", "Sext", "Nones", "Vespers", "Compline"  ]
}
