{
     "Introduction":"introduction.mp4",
     "Show Prayer":"showPrayer.mp4",
     "Read Prayer":"readPrayer.mp4",
     "Change Language":"changeLanguage.mp4",
     "Play Word in Prayer":"playWordInPrayer.mp4",
     "Start Quiz":"startQuiz.mp4",
     "End Quiz":"endQuiz.mp4",
     "Show Results":"showResults.mp4",
     "Display Chart":"displayChart.mp4"
}
